0.00000,-10.00000,-9.00000,-8.00000,-7.00000,-6.00000,-5.00000,-4.00000,-3.00000,-2.00000,-1.00000,0.00000,1.00000,2.00000,3.00000,4.00000,5.00000,6.00000,7.00000,8.00000,9.00000,10.00000,11.00000,12.00000,13.00000,14.00000,15.00000,16.00000,17.00000,18.00000,19.00000,20.00000,21.00000,22.00000,23.00000,24.00000,25.00000,26.00000,27.00000,28.00000,29.00000,30.00000
30.00000,2.17183,2.18697,2.20184,2.21642,2.23072,2.24473,2.25847,2.27192,2.28509,2.29797,2.31057,2.32290,2.33493,2.34669,2.35816,2.36935,2.38026,2.39089,2.40123,2.41129,2.42107,2.43056,2.43977,2.44871,2.45735,2.46572,2.47380,2.48160,2.48912,2.49635,2.50330,2.50997,2.51636,2.52247,2.52829,2.53383,2.53908,2.54406,2.54875,2.55316,2.55729
31.00000,2.19762,2.21319,2.22847,2.24348,2.25820,2.27264,2.28679,2.30067,2.31426,2.32757,2.34059,2.35334,2.36580,2.37798,2.38987,2.40149,2.41282,2.42387,2.43463,2.44512,2.45532,2.46523,2.47487,2.48422,2.49329,2.50208,2.51059,2.51881,2.52675,2.53441,2.54178,2.54888,2.55569,2.56221,2.56846,2.57442,2.58010,2.58550,2.59061,2.59545,2.60000
32.00000,2.22450,2.24050,2.25621,2.27163,2.28678,2.30164,2.31622,2.33052,2.34453,2.35826,2.37171,2.38488,2.39776,2.41036,2.42268,2.43472,2.44647,2.45794,2.46913,2.48004,2.49066,2.50100,2.51106,2.52084,2.53033,2.53954,2.54847,2.55712,2.56548,2.57356,2.58136,2.58888,2.59611,2.60306,2.60973,2.61611,2.62222,2.62804,2.63357,2.63883,2.64380
33.00000,2.25249,2.26890,2.28504,2.30089,2.31645,2.33174,2.34674,2.36146,2.37590,2.39005,2.40393,2.41751,2.43082,2.44385,2.45659,2.46905,2.48122,2.49312,2.50473,2.51606,2.52711,2.53787,2.54835,2.55855,2.56847,2.57810,2.58745,2.59652,2.60531,2.61381,2.62203,2.62997,2.63763,2.64500,2.65209,2.65890,2.66543,2.67167,2.67763,2.68331,2.68870
34.00000,2.28157,2.29841,2.31496,2.33124,2.34723,2.36294,2.37836,2.39350,2.40836,2.42294,2.43724,2.45125,2.46498,2.47843,2.49159,2.50447,2.51707,2.52939,2.54143,2.55318,2.56465,2.57583,2.58674,2.59736,2.60770,2.61776,2.62753,2.63702,2.64623,2.65516,2.66380,2.67217,2.68024,2.68804,2.69555,2.70279,2.70974,2.71640,2.72279,2.72889,2.73470
35.00000,2.31175,2.32901,2.34599,2.36268,2.37910,2.39523,2.41108,2.42664,2.44193,2.45693,2.47164,2.48608,2.50023,2.51410,2.52769,2.54100,2.55402,2.56676,2.57922,2.59139,2.60329,2.61490,2.62622,2.63727,2.64803,2.65851,2.66871,2.67862,2.68826,2.69760,2.70667,2.71546,2.72396,2.73218,2.74011,2.74777,2.75514,2.76223,2.76904,2.77556,2.78180
36.00000,2.34303,2.36071,2.37811,2.39523,2.41207,2.42862,2.44489,2.46088,2.47659,2.49201,2.50715,2.52201,2.53659,2.55088,2.56489,2.57862,2.59206,2.60523,2.61811,2.63071,2.64302,2.65505,2.66681,2.67827,2.68946,2.70036,2.71098,2.72132,2.73137,2.74115,2.75064,2.75984,2.76877,2.77741,2.78577,2.79385,2.80164,2.80916,2.81639,2.82333,2.83000
37.00000,2.37540,2.39351,2.41133,2.42887,2.44613,2.46311,2.47980,2.49621,2.51234,2.52819,2.54375,2.55904,2.57403,2.58875,2.60318,2.61734,2.63120,2.64479,2.65809,2.67112,2.68385,2.69631,2.70848,2.72037,2.73198,2.74331,2.75435,2.76511,2.77559,2.78579,2.79570,2.80533,2.81468,2.82374,2.83253,2.84103,2.84924,2.85718,2.86483,2.87220,2.87929
38.00000,2.40887,2.42740,2.44565,2.46361,2.48129,2.49869,2.51581,2.53265,2.54920,2.56547,2.58145,2.59716,2.61258,2.62772,2.64258,2.65715,2.67144,2.68545,2.69918,2.71262,2.72578,2.73866,2.75126,2.76357,2.77561,2.78735,2.79882,2.81000,2.82091,2.83152,2.84186,2.85191,2.86168,2.87117,2.88038,2.88930,2.89794,2.90630,2.91438,2.92217,2.92968
39.00000,2.44344,2.46239,2.48106,2.49945,2.51755,2.53538,2.55292,2.57017,2.58715,2.60384,2.62025,2.63638,2.65222,2.66779,2.68307,2.69806,2.71278,2.72721,2.74136,2.75523,2.76881,2.78211,2.79513,2.80787,2.82032,2.83250,2.84439,2.85599,2.86732,2.87836,2.88912,2.89959,2.90979,2.91970,2.92933,2.93867,2.94774,2.95652,2.96502,2.97323,2.98117
40.00000,2.47910,2.49848,2.51757,2.53638,2.55491,2.57316,2.59112,2.60880,2.62620,2.64331,2.66015,2.67670,2.69297,2.70895,2.72465,2.74007,2.75521,2.77007,2.78464,2.79893,2.81294,2.82666,2.84010,2.85326,2.86614,2.87874,2.89105,2.90308,2.91482,2.92629,2.93747,2.94837,2.95899,2.96932,2.97937,2.98914,2.99863,3.00783,3.01676,3.02539,3.03375
41.00000,2.51586,2.53566,2.55518,2.57441,2.59337,2.61203,2.63042,2.64852,2.66634,2.68388,2.70114,2.71811,2.73480,2.75121,2.76734,2.78318,2.79874,2.81402,2.82902,2.84373,2.85816,2.87231,2.88617,2.89975,2.91306,2.92607,2.93881,2.95126,2.96343,2.97532,2.98692,2.99825,3.00929,3.02004,3.03052,3.04071,3.05062,3.06025,3.06959,3.07865,3.08743
42.00000,2.55372,2.57395,2.59389,2.61354,2.63292,2.65201,2.67082,2.68934,2.70759,2.72555,2.74323,2.76063,2.77774,2.79457,2.81112,2.82739,2.84337,2.85907,2.87449,2.88962,2.90448,2.91905,2.93334,2.94734,2.96107,2.97451,2.98767,3.00054,3.01313,3.02544,3.03747,3.04922,3.06068,3.07186,3.08276,3.09337,3.10371,3.11376,3.12352,3.13301,3.14221
43.00000,2.59268,2.61333,2.63369,2.65377,2.67357,2.69308,2.71231,2.73126,2.74993,2.76831,2.78642,2.80424,2.82177,2.83903,2.85600,2.87269,2.88909,2.90522,2.92106,2.93662,2.95189,2.96689,2.98160,2.99603,3.01017,3.02404,3.03762,3.05092,3.06393,3.07667,3.08912,3.10129,3.11317,3.12478,3.13610,3.14714,3.15789,3.16836,3.17855,3.18846,3.19809
44.00000,2.63274,2.65380,2.67459,2.69509,2.71531,2.73525,2.75490,2.77428,2.79337,2.81217,2.83070,2.84894,2.86690,2.88458,2.90197,2.91909,2.93592,2.95246,2.96873,2.98471,3.00041,3.01583,3.03096,3.04581,3.06038,3.07467,3.08867,3.10239,3.11583,3.12899,3.14186,3.15445,3.16676,3.17879,3.19053,3.20199,3.21317,3.22407,3.23468,3.24501,3.25506
45.00000,2.67389,2.69538,2.71659,2.73751,2.75816,2.77852,2.79859,2.81839,2.83790,2.85713,2.87608,2.89475,2.91313,2.93123,2.94905,2.96658,2.98383,3.00080,3.01749,3.03390,3.05002,3.06586,3.08142,3.09669,3.11168,3.12639,3.14082,3.15496,3.16883,3.18241,3.19570,3.20872,3.22145,3.23390,3.24607,3.25795,3.26955,3.28087,3.29191,3.30266,3.31313
46.00000,2.71614,2.73805,2.75968,2.78103,2.80210,2.82288,2.84338,2.86360,2.88354,2.90319,2.92256,2.94165,2.96045,2.97898,2.99722,3.01518,3.03285,3.05024,3.06735,3.08418,3.10073,3.11699,3.13297,3.14867,3.16408,3.17922,3.19407,3.20863,3.22292,3.23692,3.25064,3.26408,3.27723,3.29011,3.30270,3.31500,3.32703,3.33877,3.35023,3.36141,3.37230
47.00000,2.75948,2.78182,2.80387,2.82565,2.84713,2.86834,2.88927,2.90991,2.93027,2.95034,2.97014,2.98965,3.00888,3.02782,3.04649,3.06487,3.08297,3.10078,3.11831,3.13557,3.15253,3.16922,3.18562,3.20174,3.21758,3.23314,3.24841,3.26340,3.27811,3.29253,3.30668,3.32054,3.33411,3.34741,3.36042,3.37315,3.38560,3.39777,3.40965,3.42125,3.43256
48.00000,2.80393,2.82669,2.84916,2.87136,2.89327,2.91490,2.93625,2.95731,2.97809,2.99859,3.01881,3.03874,3.05840,3.07776,3.09685,3.11565,3.13418,3.15242,3.17037,3.18805,3.20544,3.22255,3.23937,3.25592,3.27218,3.28816,3.30385,3.31926,3.33440,3.34924,3.36381,3.37809,3.39209,3.40581,3.41925,3.43240,3.44527,3.45786,3.47016,3.48219,3.49393
49.00000,2.84947,2.87265,2.89555,2.91817,2.94050,2.96256,2.98433,3.00581,3.02702,3.04794,3.06858,3.08894,3.10901,3.12880,3.14831,3.16754,3.18648,3.20515,3.22353,3.24162,3.25944,3.27697,3.29422,3.31118,3.32787,3.34427,3.36039,3.37623,3.39178,3.40705,3.42204,3.43675,3.45117,3.46531,3.47917,3.49275,3.50604,3.51905,3.53178,3.54422,3.55639
50.00000,2.89611,2.91971,2.94303,2.96607,2.98883,3.01131,3.03350,3.05541,3.07704,3.09838,3.11945,3.14023,3.16073,3.18094,3.20087,3.22052,3.23989,3.25898,3.27778,3.29630,3.31453,3.33249,3.35016,3.36755,3.38466,3.40148,3.41802,3.43428,3.45026,3.46596,3.48137,3.49650,3.51134,3.52591,3.54019,3.55419,3.56790,3.58134,3.59449,3.60736,3.61994
51.00000,2.94384,2.96787,2.99162,3.01508,3.03826,3.06116,3.08377,3.10611,3.12816,3.14993,3.17141,3.19262,3.21354,3.23417,3.25453,3.27460,3.29439,3.31390,3.33313,3.35207,3.37073,3.38911,3.40720,3.42502,3.44255,3.45979,3.47676,3.49344,3.50984,3.52596,3.54179,3.55734,3.57261,3.58760,3.60231,3.61673,3.63087,3.64472,3.65830,3.67159,3.68460
52.00000,2.99267,3.01712,3.04129,3.06518,3.08878,3.11211,3.13514,3.15790,3.18038,3.20257,3.22448,3.24610,3.26744,3.28851,3.30928,3.32978,3.34999,3.36992,3.38957,3.40894,3.42802,3.44682,3.46534,3.48358,3.50153,3.51920,3.53659,3.55369,3.57052,3.58706,3.60331,3.61929,3.63498,3.65039,3.66552,3.68036,3.69493,3.70921,3.72320,3.73692,3.75035
53.00000,3.04260,3.06748,3.09207,3.11638,3.14041,3.16415,3.18761,3.21079,3.23369,3.25630,3.27863,3.30068,3.32245,3.34393,3.36514,3.38605,3.40669,3.42705,3.44712,3.46691,3.48641,3.50563,3.52458,3.54323,3.56161,3.57970,3.59751,3.61504,3.63229,3.64925,3.66593,3.68233,3.69845,3.71428,3.72983,3.74510,3.76008,3.77479,3.78921,3.80334,3.81720
54.00000,3.09363,3.11893,3.14394,3.16868,3.19313,3.21729,3.24118,3.26478,3.28810,3.31114,3.33389,3.35636,3.37855,3.40046,3.42208,3.44343,3.46449,3.48526,3.50576,3.52597,3.54590,3.56554,3.58491,3.60399,3.62279,3.64131,3.65954,3.67749,3.69516,3.71255,3.72965,3.74647,3.76301,3.77926,3.79524,3.81093,3.82634,3.84146,3.85631,3.87087,3.88515
55.00000,3.14575,3.17148,3.19691,3.22207,3.24694,3.27153,3.29584,3.31987,3.34361,3.36707,3.39025,3.41314,3.43575,3.45808,3.48013,3.50190,3.52338,3.54458,3.56550,3.58613,3.60648,3.62655,3.64634,3.66584,3.68507,3.70400,3.72266,3.74104,3.75913,3.77694,3.79446,3.81171,3.82867,3.84535,3.86174,3.87786,3.89369,3.90924,3.92450,3.93949,3.95419
